<svg width="18" height="18" viewBox="0 0 18 18" fill="none" xmlns="http://www.w3.org/2000/svg">
<path opacity="1" d="M3 16.5C3 13.1863 5.68629 10.5 9 10.5C12.3137 10.5 15 13.1863 15 16.5H3ZM9 9.75C6.51375 9.75 4.5 7.73625 4.5 5.25C4.5 2.76375 6.51375 0.75 9 0.75C11.4862 0.75 13.5 2.76375 13.5 5.25C13.5 7.73625 11.4862 9.75 9 9.75Z" fill="white"/>
</svg>
